<?xml version="1.0" encoding="UTF-8" standalone="no"?>
<!-- Created with Inkscape (http://www.inkscape.org/) -->

<svg
   width="16.0px"
   height="16.0px"
   viewBox="0 0 16.0 16.0"
   version="1.1"
   id="SVGRoot"
   sodipodi:docname="display-brightness-12-symbolic.svg"
   inkscape:version="1.2.2 (b0a8486541, 2022-12-01)"
   xmlns:inkscape="http://www.inkscape.org/namespaces/inkscape"
   xmlns:sodipodi="http://sodipodi.sourceforge.net/DTD/sodipodi-0.dtd"
   xmlns="http://www.w3.org/2000/svg"
   xmlns:svg="http://www.w3.org/2000/svg">
  <sodipodi:namedview
     id="namedview1593"
     pagecolor="#505050"
     bordercolor="#ffffff"
     borderopacity="1"
     inkscape:showpageshadow="0"
     inkscape:pageopacity="0"
     inkscape:pagecheckerboard="1"
     inkscape:deskcolor="#505050"
     inkscape:document-units="px"
     showgrid="true"
     inkscape:zoom="38.057741"
     inkscape:cx="8.5265176"
     inkscape:cy="6.9499658"
     inkscape:window-width="1610"
     inkscape:window-height="1050"
     inkscape:window-x="35"
     inkscape:window-y="0"
     inkscape:window-maximized="1"
     inkscape:current-layer="layer1">
    <inkscape:grid
       type="xygrid"
       id="grid1599" />
  </sodipodi:namedview>
  <defs
     id="defs1588" />
  <g
     inkscape:label="Layer 1"
     inkscape:groupmode="layer"
     id="layer1">
    <path
       style="marker:none;fill:#000000;fill-opacity:0.3137255"
       d="m 3.404001,4.818 -1.415,-1.414 a 0.499,0.499 0 0 1 0,-0.707 l 0.708,-0.707 a 0.499,0.499 0 0 1 0.707,0 l 1.414,1.414 a 0.499,0.499 0 0 1 0,0.707 l -0.707,0.707 a 0.499,0.499 0 0 1 -0.707,0 z"
       id="path2238" />
    <path
       style="marker:none"
       d="m 12.596001,14.01 -1.414,-1.414 a 0.499,0.499 0 0 1 0,-0.707 l 0.707,-0.707 a 0.499,0.499 0 0 1 0.707,0 l 1.414,1.414 a 0.499,0.499 0 0 1 0,0.707 l -0.707,0.707 a 0.499,0.499 0 0 1 -0.707,0 z"
       id="path2236" />
    <path
       style="marker:none"
       d="m 7.000001,2.5 v -2 c 0,-0.277 0.223,-0.5 0.5,-0.5 h 1 c 0.277,0 0.5,0.223 0.5,0.5 v 2 c 0,0.277 -0.223,0.5 -0.5,0.5 h -1 a 0.499,0.499 0 0 1 -0.5,-0.5 z"
       id="path2234" />
    <path
       style="marker:none"
       d="m 7.000001,15.5 v -2 c 0,-0.277 0.223,-0.5 0.5,-0.5 h 1 c 0.277,0 0.5,0.223 0.5,0.5 v 2 c 0,0.277 -0.223,0.5 -0.5,0.5 h -1 a 0.499,0.499 0 0 1 -0.5,-0.5 z"
       id="path2232" />
    <path
       style="marker:none"
       d="m 11.182001,3.404 1.414,-1.415 a 0.499,0.499 0 0 1 0.707,0 l 0.707,0.708 a 0.499,0.499 0 0 1 0,0.707 l -1.414,1.414 a 0.499,0.499 0 0 1 -0.707,0 l -0.707,-0.707 a 0.499,0.499 0 0 1 0,-0.707 z"
       id="path2230" />
    <path
       style="marker:none"
       d="m 1.990001,12.596 1.414,-1.414 a 0.499,0.499 0 0 1 0.707,0 l 0.707,0.707 a 0.499,0.499 0 0 1 0,0.707 l -1.414,1.414 a 0.499,0.499 0 0 1 -0.707,0 l -0.707,-0.707 a 0.499,0.499 0 0 1 0,-0.707 z"
       id="path2228" />
    <path
       style="marker:none"
       d="m 13.500001,7 h 2 c 0.277,0 0.5,0.223 0.5,0.5 v 1 c 0,0.277 -0.223,0.4999998 -0.5,0.4999998 h -2 A 0.499,0.499 0 0 1 13.000001,8.5 v -1 c 0,-0.277 0.223,-0.5 0.5,-0.5 z"
       id="path2226" />
    <path
       style="marker:none;fill:#000000;fill-opacity:0.3137255"
       d="M 0.50000096,7 H 2.500001 c 0.277,0 0.5,0.223 0.5,0.5 v 1 c 0,0.277 -0.223,0.4999998 -0.5,0.4999998 H 0.50000096 A 0.499,0.499 0 0 1 1.0036168e-6,8.5 v -1 C 1.0036168e-6,7.223 0.223001,7 0.50000096,7 Z"
       id="path1299" />
    <path
       style="marker:none;fill:#000000;fill-opacity:0.3137255"
       d="M 4.9715495,3.3014025 4.2053743,1.4535398 A 0.499,0.499 0 0 1 4.4759315,0.80035696 L 5.4005954,0.418114 A 0.499,0.499 0 0 1 6.0537783,0.68867118 L 6.8190295,2.5361512 A 0.499,0.499 0 0 1 6.5484724,3.189334 L 5.6247323,3.5719597 A 0.499,0.499 0 0 1 4.9715495,3.3014025 Z"
       id="path2222" />
    <path
       style="marker:none"
       d="M 9.9462241,15.311329 9.1809728,13.463849 A 0.499,0.499 0 0 1 9.45153,12.810666 l 0.92374,-0.382625 a 0.499,0.499 0 0 1 0.653183,0.270557 l 0.765251,1.84748 a 0.499,0.499 0 0 1 -0.270557,0.653183 l -0.92374,0.382625 A 0.499,0.499 0 0 1 9.9462241,15.311329 Z"
       id="path2220" />
    <path
       style="marker:none"
       d="M 9.1808801,2.5359792 9.946247,0.68822015 C 10.05225,0.43230552 10.343614,0.31161879 10.599528,0.4176221 l 0.92388,0.38268343 c 0.255915,0.10600331 0.376601,0.39736687 0.270598,0.65328147 l -0.765367,1.8477591 c -0.106003,0.2559146 -0.397367,0.3766013 -0.653281,0.270598 L 9.4514782,3.1892607 A 0.499,0.499 0 0 1 9.1808801,2.5359792 Z"
       id="path2218" />
    <path
       style="marker:none"
       d="m 4.2059955,14.546413 0.7653669,-1.847759 c 0.1060033,-0.255915 0.3973668,-0.376601 0.6532815,-0.270598 l 0.9238795,0.382683 c 0.2559146,0.106004 0.3766013,0.397367 0.270598,0.653282 L 6.0537546,15.31178 C 5.9477513,15.567695 5.6563877,15.688381 5.4004731,15.582378 L 4.4765936,15.199695 A 0.499,0.499 0 0 1 4.2059955,14.546413 Z"
       id="path2216" />
    <path
       style="marker:none"
       d="m 12.698599,4.9715486 1.847863,-0.7661752 a 0.499,0.499 0 0 1 0.653182,0.2705572 l 0.382243,0.9246639 A 0.499,0.499 0 0 1 15.31133,6.0537773 L 13.46385,6.8190286 A 0.499,0.499 0 0 1 12.810667,6.5484714 l -0.382625,-0.92374 a 0.499,0.499 0 0 1 0.270557,-0.6531828 z"
       id="path2214" />
    <path
       style="marker:none;fill:#000000;fill-opacity:0.3137255"
       d="M 0.68867211,9.9462231 2.5361521,9.1809718 A 0.499,0.499 0 0 1 3.189335,9.451529 l 0.3826256,0.92374 a 0.499,0.499 0 0 1 -0.2705572,0.653183 l -1.84748,0.765251 A 0.499,0.499 0 0 1 0.80074056,11.523146 L 0.41811492,10.599406 A 0.499,0.499 0 0 1 0.68867211,9.9462231 Z"
       id="path2212" />
    <path
       style="marker:none"
       d="m 13.464022,9.1808796 1.847759,0.7653668 c 0.255915,0.1060036 0.376601,0.3973666 0.270598,0.6532816 l -0.382683,0.923879 c -0.106003,0.255915 -0.397367,0.376601 -0.653282,0.270598 l -1.847759,-0.765367 a 0.499,0.499 0 0 1 -0.270598,-0.653281 l 0.382684,-0.9238794 c 0.106003,-0.2559146 0.397366,-0.3766013 0.653281,-0.270598 z"
       id="path2210" />
    <path
       style="marker:none;fill:#000000;fill-opacity:0.3137255"
       d="m 1.4535881,4.205995 1.8477591,0.7653668 c 0.2559146,0.1060033 0.3766013,0.3973669 0.270598,0.6532815 L 3.1892619,6.5485225 C 3.0832586,6.8044371 2.7918951,6.9251238 2.5359804,6.8191205 L 0.68822138,6.0537536 A 0.499,0.499 0 0 1 0.41762333,5.4004722 L 0.80030661,4.476593 C 0.90630992,4.2206784 1.1976735,4.0999916 1.4535881,4.205995 Z"
       id="path1299-3" />
    <path
       d="m 8.000001,4 c -2.197,0 -4,1.803 -4,4 0,2.197 1.803,4 4,4 2.197,0 4,-1.803 4,-4 0,-2.197 -1.803,-4 -4,-4 z m 0,2 c 1.117,0 2,0.884 2,2 0,1.1159998 -0.883,1.9999998 -2,1.9999998 -1.116,0 -2,-0.884 -2,-1.9999998 0,-1.116 0.884,-2 2,-2 z"
       style="line-height:normal;font-variant-ligatures:normal;font-variant-position:normal;font-variant-caps:normal;font-variant-numeric:normal;font-variant-alternates:normal;font-feature-settings:normal;text-indent:0;text-align:start;text-decoration-line:none;text-decoration-style:solid;text-decoration-color:#000000;text-transform:none;text-orientation:mixed;shape-padding:0;isolation:auto;mix-blend-mode:normal;marker:none"
       color="#000000"
       font-weight="400"
       font-family="sans-serif"
       white-space="normal"
       overflow="visible"
       id="path1301" />
  </g>
</svg>
